{
  "project_info": {
    "project_number": "261863148229",
    "firebase_url": "https://calendar-b727f.firebaseio.com",
    "project_id": "calendar-b727f",
    "storage_bucket": "calendar-b727f.appspot.com"
  },
  "client": [
    {
      "client_info": {
        "mobilesdk_app_id": "1:261863148229:android:637234d4aba17aba",
        "android_client_info": {
          "package_name": "com.fila.taskman"
        }
      },
      "oauth_client": [
        {
          "client_id": "261863148229-8gg4j0acm4imvmmqfo2adsthjlkg1n8t.apps.googleusercontent.com",
          "client_type": 3
        }
      ],
      "api_key": [
        {
          "current_key": "AIzaSyDZL-5prmvOJ3hlB_MtyevkBzwOlkRBhYQ"
        }
      ],
      "services": {
        "analytics_service": {
          "status": 1
        },
        "appinvite_service": {
          "status": 1,
          "other_platform_oauth_client": []
        },
        "ads_service": {
          "status": 2
        }
      }
    }
  ],
  "configuration_version": "1"
}